<?xml version="1.0" encoding="UTF-8" standalone="no"?>
<!DOCTYPE svg PUBLIC "-//W3C//DTD SVG 1.1//EN"
 "http://www.w3.org/Graphics/SVG/1.1/DTD/svg11.dtd">
<!-- Generated by graphviz version 2.40.1 (20161225.0304)
 -->
<!-- Title: models_diagram Pages: 1 -->
<svg width="689pt" height="772pt"
 viewBox="0.00 0.00 689.32 772.00" xmlns="http://www.w3.org/2000/svg" xmlns:xlink="http://www.w3.org/1999/xlink">
<g id="graph0" class="graph" transform="scale(1 1) rotate(0) translate(4 768)">
<title>models_diagram</title>
<polygon fill="transparent" stroke="transparent" points="-4,4 -4,-768 685.3225,-768 685.3225,4 -4,4"/>
<!-- _diagram_info -->
<g id="node1" class="node">
<title>_diagram_info</title>
<text text-anchor="start" x="8" y="-728.6" font-family="Times,serif" font-size="13.00" fill="#000000">Models diagram</text>
<text text-anchor="start" x="8" y="-715.6" font-family="Times,serif" font-size="13.00" fill="#000000">Date: Mar 27 2017 &#45; 09:34</text>
<text text-anchor="start" x="8" y="-702.6" font-family="Times,serif" font-size="13.00" fill="#000000">Migration version: 20170326142918</text>
<text text-anchor="start" x="8" y="-689.6" font-family="Times,serif" font-size="13.00" fill="#000000">Generated by RailRoady 1.5.2</text>
<text text-anchor="start" x="8" y="-676.6" font-family="Times,serif" font-size="13.00" fill="#000000">http://railroady.prestonlee.com</text>
</g>
<!-- ApplicationRecord -->
<g id="node2" class="node">
<title>ApplicationRecord</title>
<ellipse fill="none" stroke="#000000" cx="302.6877" cy="-706.5" rx="77.2916" ry="18"/>
<text text-anchor="middle" x="302.6877" y="-702.3" font-family="Times,serif" font-size="14.00" fill="#000000">ApplicationRecord</text>
</g>
<!-- Card -->
<g id="node3" class="node">
<title>Card</title>
<path fill="none" stroke="#000000" d="M143.8254,-.5C143.8254,-.5 367.55,-.5 367.55,-.5 373.55,-.5 379.55,-6.5 379.55,-12.5 379.55,-12.5 379.55,-88.5 379.55,-88.5 379.55,-94.5 373.55,-100.5 367.55,-100.5 367.55,-100.5 143.8254,-100.5 143.8254,-100.5 137.8254,-100.5 131.8254,-94.5 131.8254,-88.5 131.8254,-88.5 131.8254,-12.5 131.8254,-12.5 131.8254,-6.5 137.8254,-.5 143.8254,-.5"/>
<text text-anchor="middle" x="255.6877" y="-85.3" font-family="Times,serif" font-size="14.00" fill="#000000">Card</text>
<polyline fill="none" stroke="#000000" points="131.8254,-78.5 379.55,-78.5 "/>
<text text-anchor="start" x="139.8254" y="-63.3" font-family="Times,serif" font-size="14.00" fill="#000000">id :integer</text>
<text text-anchor="start" x="139.8254" y="-49.3" font-family="Times,serif" font-size="14.00" fill="#000000">name :character varying</text>
<text text-anchor="start" x="139.8254" y="-35.3" font-family="Times,serif" font-size="14.00" fill="#000000">created_at :timestamp without time zone</text>
<text text-anchor="start" x="139.8254" y="-21.3" font-family="Times,serif" font-size="14.00" fill="#000000">updated_at :timestamp without time zone</text>
<text text-anchor="start" x="139.8254" y="-7.3" font-family="Times,serif" font-size="14.00" fill="#000000">description :text</text>
</g>
<!-- Character -->
<g id="node4" class="node">
<title>Character</title>
<path fill="none" stroke="#000000" d="M409.8254,-.5C409.8254,-.5 633.55,-.5 633.55,-.5 639.55,-.5 645.55,-6.5 645.55,-12.5 645.55,-12.5 645.55,-88.5 645.55,-88.5 645.55,-94.5 639.55,-100.5 633.55,-100.5 633.55,-100.5 409.8254,-100.5 409.8254,-100.5 403.8254,-100.5 397.8254,-94.5 397.8254,-88.5 397.8254,-88.5 397.8254,-12.5 397.8254,-12.5 397.8254,-6.5 403.8254,-.5 409.8254,-.5"/>
<text text-anchor="middle" x="521.6877" y="-85.3" font-family="Times,serif" font-size="14.00" fill="#000000">Character</text>
<polyline fill="none" stroke="#000000" points="397.8254,-78.5 645.55,-78.5 "/>
<text text-anchor="start" x="405.8254" y="-63.3" font-family="Times,serif" font-size="14.00" fill="#000000">id :integer</text>
<text text-anchor="start" x="405.8254" y="-49.3" font-family="Times,serif" font-size="14.00" fill="#000000">name :character varying</text>
<text text-anchor="start" x="405.8254" y="-35.3" font-family="Times,serif" font-size="14.00" fill="#000000">description :text</text>
<text text-anchor="start" x="405.8254" y="-21.3" font-family="Times,serif" font-size="14.00" fill="#000000">created_at :timestamp without time zone</text>
<text text-anchor="start" x="405.8254" y="-7.3" font-family="Times,serif" font-size="14.00" fill="#000000">updated_at :timestamp without time zone</text>
</g>
<!-- Player -->
<g id="node5" class="node">
<title>Player</title>
<path fill="none" stroke="#000000" d="M409.8254,-137.5C409.8254,-137.5 633.55,-137.5 633.55,-137.5 639.55,-137.5 645.55,-143.5 645.55,-149.5 645.55,-149.5 645.55,-309.5 645.55,-309.5 645.55,-315.5 639.55,-321.5 633.55,-321.5 633.55,-321.5 409.8254,-321.5 409.8254,-321.5 403.8254,-321.5 397.8254,-315.5 397.8254,-309.5 397.8254,-309.5 397.8254,-149.5 397.8254,-149.5 397.8254,-143.5 403.8254,-137.5 409.8254,-137.5"/>
<text text-anchor="middle" x="521.6877" y="-306.3" font-family="Times,serif" font-size="14.00" fill="#000000">Player</text>
<polyline fill="none" stroke="#000000" points="397.8254,-299.5 645.55,-299.5 "/>
<text text-anchor="start" x="405.8254" y="-284.3" font-family="Times,serif" font-size="14.00" fill="#000000">is_draw :boolean</text>
<text text-anchor="start" x="405.8254" y="-270.3" font-family="Times,serif" font-size="14.00" fill="#000000">user_id :integer</text>
<text text-anchor="start" x="405.8254" y="-256.3" font-family="Times,serif" font-size="14.00" fill="#000000">gold :integer</text>
<text text-anchor="start" x="405.8254" y="-242.3" font-family="Times,serif" font-size="14.00" fill="#000000">isTurn :boolean</text>
<text text-anchor="start" x="405.8254" y="-228.3" font-family="Times,serif" font-size="14.00" fill="#000000">created_at :timestamp without time zone</text>
<text text-anchor="start" x="405.8254" y="-214.3" font-family="Times,serif" font-size="14.00" fill="#000000">updated_at :timestamp without time zone</text>
<text text-anchor="start" x="405.8254" y="-200.3" font-family="Times,serif" font-size="14.00" fill="#000000">room_id :integer</text>
<text text-anchor="start" x="405.8254" y="-186.3" font-family="Times,serif" font-size="14.00" fill="#000000">card :character varying</text>
<text text-anchor="start" x="405.8254" y="-172.3" font-family="Times,serif" font-size="14.00" fill="#000000">seqid :integer</text>
<text text-anchor="start" x="405.8254" y="-158.3" font-family="Times,serif" font-size="14.00" fill="#000000">character_name :character varying</text>
<text text-anchor="start" x="405.8254" y="-144.3" font-family="Times,serif" font-size="14.00" fill="#000000">id :integer</text>
</g>
<!-- Player&#45;&gt;Card -->
<g id="edge1" class="edge">
<title>Player&#45;&gt;Card</title>
<path fill="none" stroke="#8fd324" d="M390.8815,-138.477C390.1483,-137.983 389.417,-137.4906 388.6877,-137 373.7431,-126.9468 357.7555,-116.3857 342.2329,-106.2321"/>
<ellipse fill="none" stroke="#8fd324" cx="394.2112" cy="-140.7268" rx="4" ry="4"/>
<polygon fill="#8fd324" stroke="#8fd324" points="342.0398,-106.106 336.1267,-96.8709 337.8532,-103.3725 333.6665,-100.6389 333.6665,-100.6389 333.6665,-100.6389 337.8532,-103.3725 331.2063,-104.4069 342.0398,-106.106 342.0398,-106.106"/>
</g>
<!-- Player&#45;&gt;Character -->
<g id="edge2" class="edge">
<title>Player&#45;&gt;Character</title>
<path fill="none" stroke="#50de66" d="M521.6877,-129.3744C521.6877,-122.382 521.6877,-115.4775 521.6877,-108.8346"/>
<ellipse fill="none" stroke="#50de66" cx="521.6878" cy="-133.3783" rx="4" ry="4"/>
<ellipse fill="#50de66" stroke="#50de66" cx="521.6878" cy="-104.5735" rx="4" ry="4"/>
</g>
<!-- Room -->
<g id="node6" class="node">
<title>Room</title>
<path fill="none" stroke="#000000" d="M409.8254,-649.5C409.8254,-649.5 633.55,-649.5 633.55,-649.5 639.55,-649.5 645.55,-655.5 645.55,-661.5 645.55,-661.5 645.55,-751.5 645.55,-751.5 645.55,-757.5 639.55,-763.5 633.55,-763.5 633.55,-763.5 409.8254,-763.5 409.8254,-763.5 403.8254,-763.5 397.8254,-757.5 397.8254,-751.5 397.8254,-751.5 397.8254,-661.5 397.8254,-661.5 397.8254,-655.5 403.8254,-649.5 409.8254,-649.5"/>
<text text-anchor="middle" x="521.6877" y="-748.3" font-family="Times,serif" font-size="14.00" fill="#000000">Room</text>
<polyline fill="none" stroke="#000000" points="397.8254,-741.5 645.55,-741.5 "/>
<text text-anchor="start" x="405.8254" y="-726.3" font-family="Times,serif" font-size="14.00" fill="#000000">id :integer</text>
<text text-anchor="start" x="405.8254" y="-712.3" font-family="Times,serif" font-size="14.00" fill="#000000">status :character varying</text>
<text text-anchor="start" x="405.8254" y="-698.3" font-family="Times,serif" font-size="14.00" fill="#000000">name :character varying</text>
<text text-anchor="start" x="405.8254" y="-684.3" font-family="Times,serif" font-size="14.00" fill="#000000">created_at :timestamp without time zone</text>
<text text-anchor="start" x="405.8254" y="-670.3" font-family="Times,serif" font-size="14.00" fill="#000000">updated_at :timestamp without time zone</text>
<text text-anchor="start" x="405.8254" y="-656.3" font-family="Times,serif" font-size="14.00" fill="#000000">turn_counter :integer</text>
</g>
<!-- User -->
<g id="node8" class="node">
<title>User</title>
<path fill="none" stroke="#000000" d="M374.053,-358.5C374.053,-358.5 669.3225,-358.5 669.3225,-358.5 675.3225,-358.5 681.3225,-364.5 681.3225,-370.5 681.3225,-370.5 681.3225,-600.5 681.3225,-600.5 681.3225,-606.5 675.3225,-612.5 669.3225,-612.5 669.3225,-612.5 374.053,-612.5 374.053,-612.5 368.053,-612.5 362.053,-606.5 362.053,-600.5 362.053,-600.5 362.053,-370.5 362.053,-370.5 362.053,-364.5 368.053,-358.5 374.053,-358.5"/>
<text text-anchor="middle" x="521.6877" y="-597.3" font-family="Times,serif" font-size="14.00" fill="#000000">User</text>
<polyline fill="none" stroke="#000000" points="362.053,-590.5 681.3225,-590.5 "/>
<text text-anchor="start" x="370.053" y="-575.3" font-family="Times,serif" font-size="14.00" fill="#000000">room_id :integer</text>
<text text-anchor="start" x="370.053" y="-561.3" font-family="Times,serif" font-size="14.00" fill="#000000">created_at :timestamp without time zone</text>
<text text-anchor="start" x="370.053" y="-547.3" font-family="Times,serif" font-size="14.00" fill="#000000">updated_at :timestamp without time zone</text>
<text text-anchor="start" x="370.053" y="-533.3" font-family="Times,serif" font-size="14.00" fill="#000000">email :character varying</text>
<text text-anchor="start" x="370.053" y="-519.3" font-family="Times,serif" font-size="14.00" fill="#000000">encrypted_password :character varying</text>
<text text-anchor="start" x="370.053" y="-505.3" font-family="Times,serif" font-size="14.00" fill="#000000">reset_password_token :character varying</text>
<text text-anchor="start" x="370.053" y="-491.3" font-family="Times,serif" font-size="14.00" fill="#000000">reset_password_sent_at :timestamp without time zone</text>
<text text-anchor="start" x="370.053" y="-477.3" font-family="Times,serif" font-size="14.00" fill="#000000">remember_created_at :timestamp without time zone</text>
<text text-anchor="start" x="370.053" y="-463.3" font-family="Times,serif" font-size="14.00" fill="#000000">sign_in_count :integer</text>
<text text-anchor="start" x="370.053" y="-449.3" font-family="Times,serif" font-size="14.00" fill="#000000">current_sign_in_at :timestamp without time zone</text>
<text text-anchor="start" x="370.053" y="-435.3" font-family="Times,serif" font-size="14.00" fill="#000000">last_sign_in_at :timestamp without time zone</text>
<text text-anchor="start" x="370.053" y="-421.3" font-family="Times,serif" font-size="14.00" fill="#000000">current_sign_in_ip :inet</text>
<text text-anchor="start" x="370.053" y="-407.3" font-family="Times,serif" font-size="14.00" fill="#000000">last_sign_in_ip :inet</text>
<text text-anchor="start" x="370.053" y="-393.3" font-family="Times,serif" font-size="14.00" fill="#000000">name :text</text>
<text text-anchor="start" x="370.053" y="-379.3" font-family="Times,serif" font-size="14.00" fill="#000000">status :text</text>
<text text-anchor="start" x="370.053" y="-365.3" font-family="Times,serif" font-size="14.00" fill="#000000">id :integer</text>
</g>
<!-- Room&#45;&gt;User -->
<g id="edge3" class="edge">
<title>Room&#45;&gt;User</title>
<path fill="none" stroke="#81694d" d="M521.6877,-641.1416C521.6877,-635.3492 521.6877,-629.3569 521.6877,-623.246"/>
<ellipse fill="none" stroke="#81694d" cx="521.6878" cy="-645.2996" rx="4" ry="4"/>
<polygon fill="#81694d" stroke="#81694d" points="521.6878,-622.8643 526.1877,-612.8643 521.6878,-617.8643 521.6877,-612.8643 521.6877,-612.8643 521.6877,-612.8643 521.6878,-617.8643 517.1877,-612.8644 521.6878,-622.8643 521.6878,-622.8643"/>
</g>
<!-- SpecialCard -->
<g id="node7" class="node">
<title>SpecialCard</title>
<path fill="none" stroke="#000000" d="M143.8254,-172.5C143.8254,-172.5 367.55,-172.5 367.55,-172.5 373.55,-172.5 379.55,-178.5 379.55,-184.5 379.55,-184.5 379.55,-274.5 379.55,-274.5 379.55,-280.5 373.55,-286.5 367.55,-286.5 367.55,-286.5 143.8254,-286.5 143.8254,-286.5 137.8254,-286.5 131.8254,-280.5 131.8254,-274.5 131.8254,-274.5 131.8254,-184.5 131.8254,-184.5 131.8254,-178.5 137.8254,-172.5 143.8254,-172.5"/>
<text text-anchor="middle" x="255.6877" y="-271.3" font-family="Times,serif" font-size="14.00" fill="#000000">SpecialCard</text>
<polyline fill="none" stroke="#000000" points="131.8254,-264.5 379.55,-264.5 "/>
<text text-anchor="start" x="139.8254" y="-249.3" font-family="Times,serif" font-size="14.00" fill="#000000">id :integer</text>
<text text-anchor="start" x="139.8254" y="-235.3" font-family="Times,serif" font-size="14.00" fill="#000000">name :character varying</text>
<text text-anchor="start" x="139.8254" y="-221.3" font-family="Times,serif" font-size="14.00" fill="#000000">description :text</text>
<text text-anchor="start" x="139.8254" y="-207.3" font-family="Times,serif" font-size="14.00" fill="#000000">cost :integer</text>
<text text-anchor="start" x="139.8254" y="-193.3" font-family="Times,serif" font-size="14.00" fill="#000000">created_at :timestamp without time zone</text>
<text text-anchor="start" x="139.8254" y="-179.3" font-family="Times,serif" font-size="14.00" fill="#000000">updated_at :timestamp without time zone</text>
</g>
<!-- SpecialCard&#45;&gt;Card -->
<g id="edge4" class="edge">
<title>SpecialCard&#45;&gt;Card</title>
<path fill="none" stroke="#6c93a6" d="M255.6877,-164.1536C255.6877,-146.8313 255.6877,-128.2043 255.6877,-111.1438"/>
<ellipse fill="none" stroke="#6c93a6" cx="255.6878" cy="-168.3711" rx="4" ry="4"/>
<polygon fill="#6c93a6" stroke="#6c93a6" points="255.6878,-110.7494 260.1877,-100.7493 255.6878,-105.7494 255.6877,-100.7494 255.6877,-100.7494 255.6877,-100.7494 255.6878,-105.7494 251.1877,-100.7494 255.6878,-110.7494 255.6878,-110.7494"/>
</g>
<!-- User&#45;&gt;Player -->
<g id="edge5" class="edge">
<title>User&#45;&gt;Player</title>
<path fill="none" stroke="#736270" d="M521.6877,-350.1831C521.6877,-343.4375 521.6877,-336.7191 521.6877,-330.1031"/>
<ellipse fill="none" stroke="#736270" cx="521.6878" cy="-354.25" rx="4" ry="4"/>
<ellipse fill="#736270" stroke="#736270" cx="521.6878" cy="-325.7834" rx="4" ry="4"/>
</g>
</g>
</svg>
