<?xml version="1.0" encoding="UTF-8" standalone="no"?>
<!DOCTYPE svg PUBLIC "-//W3C//DTD SVG 1.1//EN"
 "http://www.w3.org/Graphics/SVG/1.1/DTD/svg11.dtd">
<!-- Generated by graphviz version 2.40.1 (20161225.0304)
 -->
<!-- Title: models_diagram Pages: 1 -->
<svg width="482pt" height="297pt"
 viewBox="0.00 0.00 482.16 297.00" xmlns="http://www.w3.org/2000/svg" xmlns:xlink="http://www.w3.org/1999/xlink">
<g id="graph0" class="graph" transform="scale(1 1) rotate(0) translate(4 293)">
<title>models_diagram</title>
<polygon fill="transparent" stroke="transparent" points="-4,4 -4,-293 478.1623,-293 478.1623,4 -4,4"/>
<!-- _diagram_info -->
<g id="node1" class="node">
<title>_diagram_info</title>
<text text-anchor="start" x="8" y="-274.6" font-family="Times,serif" font-size="13.00" fill="#000000">Models diagram</text>
<text text-anchor="start" x="8" y="-261.6" font-family="Times,serif" font-size="13.00" fill="#000000">Date: Mar 27 2017 &#45; 09:34</text>
<text text-anchor="start" x="8" y="-248.6" font-family="Times,serif" font-size="13.00" fill="#000000">Migration version: 20170326142918</text>
<text text-anchor="start" x="8" y="-235.6" font-family="Times,serif" font-size="13.00" fill="#000000">Generated by RailRoady 1.5.2</text>
<text text-anchor="start" x="8" y="-222.6" font-family="Times,serif" font-size="13.00" fill="#000000">http://railroady.prestonlee.com</text>
</g>
<!-- ApplicationRecord -->
<g id="node2" class="node">
<title>ApplicationRecord</title>
<ellipse fill="none" stroke="#000000" cx="302.6877" cy="-252.5" rx="77.2916" ry="18"/>
<text text-anchor="middle" x="302.6877" y="-248.3" font-family="Times,serif" font-size="14.00" fill="#000000">ApplicationRecord</text>
</g>
<!-- Card -->
<g id="node3" class="node">
<title>Card</title>
<ellipse fill="none" stroke="#000000" cx="332.6877" cy="-18" rx="27.0958" ry="18"/>
<text text-anchor="middle" x="332.6877" y="-13.8" font-family="Times,serif" font-size="14.00" fill="#000000">Card</text>
</g>
<!-- Character -->
<g id="node4" class="node">
<title>Character</title>
<ellipse fill="none" stroke="#000000" cx="429.6877" cy="-18" rx="44.4491" ry="18"/>
<text text-anchor="middle" x="429.6877" y="-13.8" font-family="Times,serif" font-size="14.00" fill="#000000">Character</text>
</g>
<!-- Player -->
<g id="node5" class="node">
<title>Player</title>
<ellipse fill="none" stroke="#000000" cx="429.6877" cy="-90" rx="32.8994" ry="18"/>
<text text-anchor="middle" x="429.6877" y="-85.8" font-family="Times,serif" font-size="14.00" fill="#000000">Player</text>
</g>
<!-- Player&#45;&gt;Card -->
<g id="edge1" class="edge">
<title>Player&#45;&gt;Card</title>
<path fill="none" stroke="#c79c37" d="M403.2522,-70.3777C389.524,-60.1877 372.7985,-47.7729 359.0771,-37.588"/>
<ellipse fill="none" stroke="#c79c37" cx="406.8465" cy="-73.0456" rx="4" ry="4"/>
<polygon fill="#c79c37" stroke="#c79c37" points="359.0052,-37.5346 353.6575,-27.961 354.9903,-34.5545 350.9754,-31.5744 350.9754,-31.5744 350.9754,-31.5744 354.9903,-34.5545 348.2933,-35.1877 359.0052,-37.5346 359.0052,-37.5346"/>
</g>
<!-- Player&#45;&gt;Character -->
<g id="edge2" class="edge">
<title>Player&#45;&gt;Character</title>
<path fill="none" stroke="#1d4b25" d="M429.6877,-63.8144C429.6877,-57.5677 429.6877,-50.894 429.6877,-44.6276"/>
<ellipse fill="none" stroke="#1d4b25" cx="429.6878" cy="-67.8314" rx="4" ry="4"/>
<ellipse fill="#1d4b25" stroke="#1d4b25" cx="429.6878" cy="-40.4133" rx="4" ry="4"/>
</g>
<!-- Room -->
<g id="node6" class="node">
<title>Room</title>
<ellipse fill="none" stroke="#000000" cx="429.6877" cy="-252.5" rx="31.9567" ry="18"/>
<text text-anchor="middle" x="429.6877" y="-248.3" font-family="Times,serif" font-size="14.00" fill="#000000">Room</text>
</g>
<!-- User -->
<g id="node8" class="node">
<title>User</title>
<ellipse fill="none" stroke="#000000" cx="429.6877" cy="-162" rx="27" ry="18"/>
<text text-anchor="middle" x="429.6877" y="-157.8" font-family="Times,serif" font-size="14.00" fill="#000000">User</text>
</g>
<!-- Room&#45;&gt;User -->
<g id="edge3" class="edge">
<title>Room&#45;&gt;User</title>
<path fill="none" stroke="#615b28" d="M429.6877,-225.9687C429.6877,-214.8402 429.6877,-201.878 429.6877,-190.5429"/>
<ellipse fill="none" stroke="#615b28" cx="429.6878" cy="-230.186" rx="4" ry="4"/>
<polygon fill="#615b28" stroke="#615b28" points="429.6878,-190.2868 434.1877,-180.2867 429.6878,-185.2868 429.6877,-180.2868 429.6877,-180.2868 429.6877,-180.2868 429.6878,-185.2868 425.1877,-180.2868 429.6878,-190.2868 429.6878,-190.2868"/>
</g>
<!-- SpecialCard -->
<g id="node7" class="node">
<title>SpecialCard</title>
<ellipse fill="none" stroke="#000000" cx="325.6877" cy="-90" rx="53.1539" ry="18"/>
<text text-anchor="middle" x="325.6877" y="-85.8" font-family="Times,serif" font-size="14.00" fill="#000000">SpecialCard</text>
</g>
<!-- SpecialCard&#45;&gt;Card -->
<g id="edge4" class="edge">
<title>SpecialCard&#45;&gt;Card</title>
<path fill="none" stroke="#561f6a" d="M328.2336,-63.8144C328.7719,-58.2775 329.3428,-52.4053 329.8898,-46.7785"/>
<ellipse fill="none" stroke="#561f6a" cx="327.8412" cy="-67.8501" rx="4" ry="4"/>
<polygon fill="#561f6a" stroke="#561f6a" points="329.9298,-46.3663 335.3764,-36.8488 330.4137,-41.3898 330.8976,-36.4133 330.8976,-36.4133 330.8976,-36.4133 330.4137,-41.3898 326.4187,-35.9778 329.9298,-46.3663 329.9298,-46.3663"/>
</g>
<!-- User&#45;&gt;Player -->
<g id="edge5" class="edge">
<title>User&#45;&gt;Player</title>
<path fill="none" stroke="#a71305" d="M429.6877,-135.8144C429.6877,-129.5677 429.6877,-122.894 429.6877,-116.6276"/>
<ellipse fill="none" stroke="#a71305" cx="429.6878" cy="-139.8314" rx="4" ry="4"/>
<ellipse fill="#a71305" stroke="#a71305" cx="429.6878" cy="-112.4133" rx="4" ry="4"/>
</g>
</g>
</svg>
